2024-04-03T20:27:05+00:00 - Triggered by create-commit.sh
2024-04-03T20:49:35+00:00: Triggered by create-commit.sh
2024-04-03T20:55:46+00:00: Triggered by create-commit.sh
2024-04-03T21:02:41+00:00: Triggered by create-commit.sh
2024-04-03T21:42:31+00:00: Triggered by create-commit.sh
2024-04-03T21:45:01+00:00: Triggered by create-commit.sh
2024-04-03T21:47:32+00:00: Triggered by create-commit.sh
2024-04-03T23:02:36+00:00: Triggered by create-commit.sh
2024-04-04T02:03:13+00:00: Triggered by create-commit.sh
2024-04-04T05:02:50+00:00: Triggered by create-commit.sh
2024-04-04T08:02:55+00:00: Triggered by create-commit.sh
2024-04-04T11:02:38+00:00: Triggered by create-commit.sh
2024-04-04T14:02:39+00:00: Triggered by create-commit.sh
2024-04-04T17:02:40+00:00: Triggered by create-commit.sh
2024-04-04T20:02:48+00:00: Triggered by create-commit.sh
2024-04-04T23:02:46+00:00: Triggered by create-commit.sh
2024-04-05T02:03:22+00:00: Triggered by create-commit.sh
2024-04-05T05:03:03+00:00: Triggered by create-commit.sh
2024-04-05T08:02:53+00:00: Triggered by create-commit.sh
2024-04-05T11:02:47+00:00: Triggered by create-commit.sh
2024-04-05T14:02:44+00:00: Triggered by create-commit.sh
2024-04-05T17:02:33+00:00: Triggered by create-commit.sh
2024-04-05T20:02:51+00:00: Triggered by create-commit.sh
2024-04-05T23:02:52+00:00: Triggered by create-commit.sh
2024-04-06T02:02:54+00:00: Triggered by create-commit.sh
2024-04-08T05:03:39+00:00: Triggered by create-commit.sh
2024-04-08T08:03:06+00:00: Triggered by create-commit.sh
2024-04-08T11:02:48+00:00: Triggered by create-commit.sh
2024-04-08T14:02:40+00:00: Triggered by create-commit.sh
2024-04-08T17:02:55+00:00: Triggered by create-commit.sh
2024-04-08T20:02:38+00:00: Triggered by create-commit.sh
2024-04-08T23:02:44+00:00: Triggered by create-commit.sh
2024-04-09T02:03:05+00:00: Triggered by create-commit.sh
2024-04-09T05:03:27+00:00: Triggered by create-commit.sh
2024-04-09T08:03:01+00:00: Triggered by create-commit.sh
2024-04-09T11:02:40+00:00: Triggered by create-commit.sh
2024-04-09T14:02:48+00:00: Triggered by create-commit.sh
2024-04-09T17:02:39+00:00: Triggered by create-commit.sh
2024-04-09T20:02:43+00:00: Triggered by create-commit.sh
2024-04-09T23:02:57+00:00: Triggered by create-commit.sh
2024-04-10T02:03:13+00:00: Triggered by create-commit.sh
2024-04-10T05:02:55+00:00: Triggered by create-commit.sh
2024-04-10T08:03:04+00:00: Triggered by create-commit.sh
2024-04-10T11:02:48+00:00: Triggered by create-commit.sh
2024-04-10T14:02:48+00:00: Triggered by create-commit.sh
2024-04-10T17:02:52+00:00: Triggered by create-commit.sh
2024-04-10T21:02:39+00:00: Triggered by create-commit.sh
2024-04-17T19:02:40+00:00: Triggered by create-commit.sh
2024-04-18T19:03:11+00:00: Triggered by create-commit.sh
2024-04-24T19:02:43+00:00: Triggered by create-commit.sh
